{
  "type": "postgres",
  "host": "localhost",
  "port": 5432,
  "username": "postgres",
  "password": "postgres",
  "database": "test",
  "synchronize": false,
  "logging": false,
  "entities": ["dist/**/*.entity.js"]
}
